r:\projects\quicmaf\quicmafgui\debug\vc141.idb
r:\projects\quicmaf\quicmafgui\debug\vc141.pdb
r:\projects\quicmaf\debug\quicmafgui.pdb
r:\projects\quicmaf\quicmafgui\debug\quicmafgui.tlog\cl.command.1.tlog
